module crunchy-tools

go 1.14

require (
	github.com/golang/protobuf v1.4.0
	github.com/kardianos/osext v0.0.0-20190222173326-2bc1f35cddc0
	github.com/mattn/go-colorable v0.1.6 // indirect
	github.com/mgutz/ansi v0.0.0-20170206155736-9520e82c474b
)
